{
 "created_at":"Mon Jun 28 11:39:08 2021",
 "test_data":[
  {
   "name":"D8P0fgRcW1K0FLhZV84Z7e3nNjRWk7Vr9kt6mSIxdZDKCJ1NlISqcVGYskEKAODVFMlxP7WiHjJYHjxWKlwXBSREvjPnW3nem8AgRAugapN40CDAi3R1Wxkzb6GHM2VXy2LHO7UxZVfiz2dlp5QTz6dlneX6OMugwMyGxaYEaCwFUzPt0ZqB41jdPVU1SfmJgiIZwE9TQfXSRV0Nt3iGuxVue4UFWbiL58XYoM7LI1DTsW5h6u1qHh9ZcfJTiv3",
   "address":"X2TfeVRIiYgmRXN1MRE20lkgzGKk2e1xL2PaCObHEY64zbjAwLrhw0Nx9GMNbjln0vucIgRN6xPLoSSCFdsWEoMo2Ba7FhmmIW8S9Pr0hln9l9ymL48d0rPKbh5LYUYVAX4FNJJp6Lja9Mso6IJjQPmJWLmOZ3DlIZXe5isJ7vaokvKXXrKT1uIohdR9G4xBY7BtoAC9DjWQHIVvNh3aqvQhFO6W8J13XZy9YkzKbj1aObFf2A4Hq8fZvNiOWiE",
   "district":"36hijovfIxpscieOifWj97uWFOa1GT21E90yFydiy3YZpuFaQ4nMxz7bgZvngkb6Jek5RbPdckLr1rjAVg2QdM9ymr9ApA9qnsCTpI2KLvFAyWmOI4j5DiYNncogjMThw83cTyxUWyGdQggR1GkjIqi1Jkt1wjwWKFxi2moEQEMXGOTJAr1JbHdyD6JVbRE1O4XWF726d9QiuvPS4SNuuo0jHdy8xP8pPxKUwhe1XcLkuKt9uAbq30la3lhSqqC",
   "state":"XopgTJDG4WMHEXU92ikVhHPGx9fapU9APx9i9to3aR1pCVzPSGGtFz2Gq04snoKyBqp6BGb5tPqu1AFn5UuZuSXLbQb37CJBu5ddqCtViOcI09xy1GauhLxMmuxD2ukygsbmoHZvtsORNUkaQ6VzwgQbYWaEi8IQJzXDdvSJy0z1hxpki2bawnZtHQ95hMA7ijYKJuTjZvUwXjsxqhZEKr0tuH81vsXZwayEelxayvEEEG6Fxou4epOn3xHyEq8",
   "email":"G3sBJHIjiGdiTg5CCseJUsRhm@gmail.com",
   "ownerId":"QOa0ibg3zl9LSHz",
   "pincode":"468183",
   "mobileNumber":"4027302494"
  },
  {
   "name":"NvKV57J1BiCLUVadb5qm0599KpqIlp0MksyPy9SG3Axk59NuWEtXlslE5hYoGDG2xVUcREsPEVOnJG3N2IOp5MZuTVXBxvfjEkdrCu6tduPqgUwpWsYivsCwnRNLKgoIVw01vqHLyZmI83MHxasoeNLsaYU9oGLPPpZuCnAg5z23atI27nhAaVJWWpbYnf01H2YsbF56ZYcWPyDAvriRXVNPZ6nw8TbK9Z4I9FQYBajfP2HyWwujkH2QrdwH5SV",
   "address":"1VhBejmW5fPOUGaOIBSOmROZKkCVhoL1SzA0godhRWapIu9v37hHqWDoZuMVMnQOWc2pQatwAxykAOIMTuuqDviAFqneNjItaqEzjuHInU8ytBDoMnvZCR9PW7qbBLRBNicYp1bM8n89djjTFiZC5Hwwn37RHI00oZP027MqlpLiBRG7yK1MffelIBm2AhGeasF4Bu8yzB1zG8wZ9UJTJERO0hj6ra7Uhr6OczEcxCq4AcxlbERJoYez92ufu3d",
   "district":"TSFsCzxQFMbvILU6Ai6QyyC2LQQnl6BhLuLdMs6M0f1wfPxo4mw4MBVAac50Qjh2F4eWq879qLNbpqaeMFn9eFHgrAiWxlLrqz5Q8OlAl69cNT2JO9NICrdIbUo0YpOZj2Zgss1UcUI53DAlxGLYxFTyZGs3y6s9MS33sqiP7NMaD499DERwVjyrV1vkjO4tcn0lWgMvxSsAP6upFWMsbiYnyd0aNXXlDxPWtHGkfkOKHx8ORRLKegPoyoBVeUa",
   "state":"Hj2OiQvNJdorhXLDZLBsWMZuESIX5KCg9ueCljcdC6XirA8yIvgwhHhDn2jF9JESXz5Y57uec54xM839IjlssbjWSlKNmEaCJYdqaUgtmyz0cuP0rTvlZRv3lMhD9RDBkPYEOfApQhwWCKKnIVoNUJPV8dVMkjME5SmBmIOThx8yxdhNIn4nYaBeR118EH8cUFlsm1FmjyuYqPqWWT0MsYVkYcc6QdVCdSXI6kvJ5C8i5Cpb4IPfnN1YlgB7OHg",
   "email":"bT8UHsW5jpoJbSbhENaS9hQEU@gmail.com",
   "ownerId":"kyfEVYx7hJYLfmT",
   "pincode":"317129",
   "mobileNumber":"1308335963"
  },
  {
   "name":"HGMz4n19jQFwPMM84Fg6AurndgYm2RThb3955UvH8xd8FVP1p83xRgvhO6trfr4jIgAwG4xTWAE190norvRTE9Jxqr22fXtD70ytWNlRMdM9cxFt3bcQgrxntrpY32mr4Y0joieRzBKu8Udk4nFU1KU1gmRPKR9uSagy8IyrOHERm6zSpNM6VX8YeRUz3lcGrYDWvJq6Q7bK4KxeXuQ5qNGsyvQUmStL49jZCuTid8uPZYr4cdG3Giv1dR7tYQM",
   "address":"WsuOMeR2gVNsOD8jDTriRZEmjEoVYq20k7AwFgmbflw4F9tkTcINnwjPS0MizkRYnBQs63V58eJGjqXAijD47IVISWh2yfCmseDHNi3qlK9Bl7DofiUIU3zMD35RqEcmFHjAm2mImily7qwaejiTof2clgPhG20JIfQJsy3by1hbrskaZm8PmVwjBEMYGibHP8QV5yfyFgi2u5bWr0FGUaW3eJlaePZjbkXt7xqIZSDVzPSk6xE8opxVvk8Hama",
   "district":"upeGTBDUG77RydLlZfb9e8BxgL1VxPFKhwN4hj2PZhF82P42K7yX8FqzMr92Jguah02qkYR7VXe2MC2PMxKJ4FtRUgswsbcVhJJd7F9zWnAmjgBfW9kkieb6xKgmwVBw95jWlZ28OQSUtn3oObiBCyMxIkPCEGr4jOd26wU0UnVH4Tk7lcSvgzaoIkDMR05nKFDISvyETC9oROT96M5oGYKjP35uBtKIXyxQCAaE8mYGZKzi5t0kwBgzpmqX5pg",
   "state":"JcSIfBPyaI9GD4s5R5eF5Ie9tI3jKvYJoUfg0bDDeo3MZwksOW6UkblA2Nlr6w9GZjF14lJr36DVXUUmOPpD3A5fqgzC67GJTJufsclRv1cQdlfDm976Acq67HyzFqMzQf43FwyknPuuhvGsVe0L0mhhDkCYDgNlrclCjAmVKYoGGSbsTFWmJg6ZXcEnxO5oC0fEfvNh8DkxDySZ8CTmU5VcxqmACzghu55n74NdL5EUalvjTKioIQAaMLECt8G",
   "email":"6BaSmnQ2QfPl2hPakqtkOsEgU@gmail.com",
   "ownerId":"hRC6TNFZiePvHay",
   "pincode":"713687",
   "mobileNumber":"8446362950"
  },
  {
   "name":"egFIewgfHstPLMi80J27S4tF8LTp6T41m2MIehgwyGCq9XeKMbmYa1favZfEj9DXPlIXlXsOW86oDCfC3jkd2QGKC5uKpBbCHlWGVyGJn9mGdyzb8h0jkdNbIQj5BiVvDfi1EaD6BiAcSVqXFpp7UP78AMuoVrapdrlJcycmgUNbywteYdiVL9alMwwDjLy5z4k1ejGZKviPrSEipRLQECpzyTSujIm2NERNB1vmHCj45kyBvqaMRRo0g5MrbuX",
   "address":"p0uJyWvJ7ToskiDeGOLxTTFRhKCFX21FQEkU9fNha5X2KxUWESC0fVK7Nn23cKH7wY9UGmJc17dkAReruaGizl41PnvDhcnhymmT0rF8sKtmgiftic82Vz3kJQm3IKGRIJYGRmDkD5r55g0IFzaAo9GjFmIgsoxlndASZlmRIKtnXXBjfEDXpeHS1cQpIe53xIZGknW8T3WpYohHqwKkKeimZkuSEmxbyR08Ej0fHsfiYt5UknYZ3B7ZTVBmK2p",
   "district":"W8tiz4WSlVb9K4jArcBz5EUKDwNcPAnFAc6eekxIFpZoBQ8uyo4aD5n1FmmtluOljAhl4S4tv02d48Ei8QIF3u07fBDTLmS0Sg4quJ8foCE5C8vCFTzA1VDUO7OxKhsrKHZZpr1WdFkSqGA0w9BtYkcB4kqKXTCF9kvuYfk0RA6sGsbrcMJM7LZE4UXshS8kw5iemiVFYj9mjFybxk7lfXZIbQHhdtWQWWwRkvdQTMET1eDcs4KADyk76tnFdzq",
   "state":"pw6UeU7kU8nyQlvaMwGHQjLJ3BV2YphnOoFS9sKsEBSGwtenLWgKkWhVsp8OuTG7STaGggA3hfc4IssOPEhByDXfKH3X48A1txFklZmwVmnVopHaa5smrb7DRzxPsLM7MnFwvwW3bmwnrDARieChJENsbu2Zlv4QvXb0pUTrKNULxD8R1xdCEvWm25xEnwfvQkDkDhMDIJlA8IswU37d7HuxjTJC0jmMYz17NkBoRNeO1gOEzYXW573pbcd15Ph",
   "email":"JK6SkuPMSaRUXbo7cKPCTcYpE@gmail.com",
   "ownerId":"kBR5TzDfwQdfPqh",
   "pincode":"334566",
   "mobileNumber":"1622197106"
  },
  {
   "name":"EO2rYtPKtlI82Rza6mAY9UGWZjZjUpQjmHTB7k5d0YQsbauaBO0YXoaI8T3MXjYLRqJJTZjSr4baXUkrlKG3e9nYkKwhiP1kfvUqR2VvMD4buPGoqGam1Zs37lMz2L6mzUr5l55124sxlViG3vq7Ywl36siZTn4nb4QW2XkE3gJOShrzeekgWTRJhIDZKuC2NHUOGWA0EJQsGHVF3qDIgjNwXHkIrZICllcZJz6kWBXXuLyjJRwSYaa4sb4Ch6B",
   "address":"h8GSkBGpPKxOkLwMN1VGXb27eUP1c51WZPYBTdMb5R15s7W7NtS5rvRKEuSy4OcoNLDgM2t0T3vvo1wtOI0QxvqtXJllP384HCfGfBy8EiXoPxQJmHgSSM6ykH2z8jf8MpvStI9fUANPGqwxs2WdfuKiw83SP07L9kbbBUgmMGyh9xLwSrgcc52qDmdh8oj6d5NGwkEAMx0LbOnugGsN1rW14JD6u1aJGeWIixH2XRdMFlm1mJtgp2w0UuKGWrd",
   "district":"UwSUECgWIYET10jMNbMXPEkrTGMFlUxjg3UAJtrniPAyORecw5KgglULHb1dN4LPsSz8ockD6Lk9KD1JQ6uB5pfETIIJziHJRWQQA8Z7y1FOOgtuZbjFRUHE6No6sInyvM31dIYWroaO4gk27Nb1PnlgIdsC6BK4MPGjLsr6zNxIY8YPxRY52KTYjaVd4mMwRJEphFY828E8vSiTXcqKADIxC1PQXVj3rzmtTjF4LFynbX6ENRM4x1TfXXWt4Hn",
   "state":"zIsLfBeblZMMtqqoRg4gWoaHiK6tFnpxt2zy7a8TaFXfXt2XbaAKtW43JwvbCyejXOTCsditgTkiyVnaAUXk62CXCHBcH0lTptSBuSieKRIAPftFTcG5iIOcMXTLzPLm0Lbcrj8hiI4ZCNtzgu4zwkptChsZYhKzGuZb1iIEtRN0qlczRib37yT8w6YYJYt6b4ZjqmJ9p88RVVe7Ce3KnZ1MjQaXCgXrV6GTrLzXMvjLUooUPg9m3ISiA9eepNx",
   "email":"PrOsvXnbdTGZbhRhwdFc28MYB@gmail.com",
   "ownerId":"yjLfs52AW5QZm1j",
   "pincode":"566259",
   "mobileNumber":"5792654683"
  },
  {
   "name":"0QpBEzGJHV9ljOq54cVQsek5IAfcYKZh0YIE8wPZPvdw2EzBNnCNVojQ7PvfDfvBo66gpEPgNe9hgjw8AoDoQKOc1ruhpUO1y7h82pWSuikvf83mzonUzJxkvIGzfya4QFiWB4Mh8G8GcZb2IVrwipOPEEfanhMjcqHxPfokg5zdw3AKTpLxMlYgkGOFueWSyq8PXFBz77eig0e1OmidKTcAIAJbRdacGt5abLYFvxVU8il6tYelHeaWbqqv0wT",
   "address":"LxrMpJOc8mTgz1T8QLm6UBMiUtRWZTyY8WmJiCDtB1xXD2pyKT3zauPAkAsT8SNPAndMb6zWw7x8qZ5nPBAaU2Eu27LvuNyco2G4wOdKANByNcKPNynTUpBtd5cAXq4NcSgdqeXPAYxCeQYwTHFp9j3OqFbdvAMG2hzjohuhGMHUjr9qxSSUJs10ypMmLsQ76tyiWVqTjxF6v6PuYPXi1edBqS5fjeG9n7YQwproPUdOtOUF3OjUg5tfHkaQoxg",
   "district":"USAQSFFRToCS5HK3s2HnXOtGZCSUmX2NU6HvxQd75MgBg3GmiGCSpLVMheL5DAFhzH3EcFoAF7BIgnqZCF3tuQywjW6tk1Oxy1zxBohUTdRh3i13vqVMgey3VzqdmySJbRMzDTjtu90UAMot9ytIQIinTFzGalSMiEgrA0LAIxbwFajej7usm2uek8ePQMtBFiiptvV44OI4RcJMhLxwnoF524ouLAKlIDYrAcCFouu2nyZ1DKFZwS0XkV6KpMm",
   "state":"DGBtLmPRBkF3Zh6ipG8bOgRW8e6w3yXgl8lBkSZ3c7K21jDHeVce3cMBh0v6KV6xOhcP5NTzVUEdyGg7AdcZbu1IES6K0T5JaUuJBgq7GlLIg9Z9E8sbsGvLDbuNXW7YdNWeIdX7zFsUsO14SJXZ70E9Nx1RNTODT7Ikg8RS19sChemH9u0F3cYl6sMlRnA8ExmRYk0nL1jPH9c1nYbyrjiYXgFcY4mOmtxU1dmdBNdghLSF7FsY7bVbzVGG0WA",
   "email":"YQn5ludru00ltgNAZLq7yRjnk@gmail.com",
   "ownerId":"FCZ6On2LEivmrRu",
   "pincode":"695069",
   "mobileNumber":"8111237319"
  },
  {
   "name":"fqCzPMLJQan1dlrYUCyHvYOIrrIyqSfN6wArdFZCw31mejXQgZUM2fiOMCEpEosrNipDkOApgBbMmyCb7fgFguSphlyXCIRpTsqByAD27nhUWYE7q7nKGCvS35yNfrixPVVTu8iaBf5wBksqLWDbRiFQdBo8kAqmCAIqm0U1oXC5n4GxfuTdcJ1eeznkt1xgtMHgBnJjV74r9CwVLjEZ01dUNRj9KU1LX3gNObJQGWRmpZorwUkdZ8T01vfxTqO",
   "address":"N9OIpp2NACWMkxJwpF9tmtR63gksEbO0hjgLVBGBnPZwBFYjOxQ2BXgzGOx1vrHLl7wbXlIvFxeZmg3h4ULKqH0CXopJJ7ej6M0zcbACSheZBwx5GBW4W2DGSMH6Mgk54ZleXX7zd6Tu8u5zkQ1CVURZtvAyc5VlJryq8b2cNYUgQpTxaWLlfaRvcyo4Ah3SKrtSM7ZL4Vw9TcsrjPV123CWfQ0h96kETCD2DE3mQQbghYDVNTsJcqsuvmvrMd7",
   "district":"4ZA066JusjVVnjz64akEW14PKvWXNGyM2S5dRjXe2douu3rxOitbjI5jpfjIasK8Wx4qRz9ylYxGBTcFqiDMPpoGHMsuYL7BrFmDrBMNaYEu953ZEo6GPALHuNDbfBrepaTcBzgwQxwz1ssZIN8pJCc8PLbuyNMA9wxEZWwlDeVuBDZMGrPouhQ8Py26FfHM0L9TwksNIftqIOxaGycI9qJ8Ud0ETK8P2ZW0L4wQUBBF92gSwTW5kjFTgq8dJxh",
   "state":"NhP2oieviy3cXykki0umsR7tHyvsXYXKghMfh9HeVJJ1V46VQ6n3IrqqDjOrhtdpCmRi3M7inYI49Qht8g5nfJwRLAlJ4hTrb5oSHnuUbBYF4vX4PmstQHlqGQk91ZocGVURlq4QEzUPrtjp0d9bxdjnSqS8O48vtbNbQP71GNSD7d30W8CThh047SwNYC0gx9HeDmFP00dhzON3Gvpu6HnaAVYGNR8MA8M73jlk2Bdd6qFTrrc8bdTmsQeVnEs",
   "email":"28VQ7oaTbb5Sq2Wp98FT8MsYG@gmail.com",
   "ownerId":"SVdDSVRYJS57NnE",
   "pincode":"797994",
   "mobileNumber":"9963878064"
  },
  {
   "name":"kCftyYrU7aMbRhkiA12UdU8DgNDIk2WKIx5RYSaoiW950K3KxhkYRl91Kj7PEYhVeQ6QnHa3tZw0FdVmZZs9WgZrVMrPFFiRlDWfRqIR9K77yBJXfHE7tgT9Aa5w7e752RabnMQ2rqfpaxNSEQ00C8eAakThq2ijcHRIJhrrDiNg65pLcCKQ725aLiaXsyS6wMFUv4Akh47tYzULxkqfugQzroT0sl2prt5zDO8zAT6k6PtUEm8fwh6Jtu7jzUI",
   "address":"dsX5kHFVTzngpBa8Z77MeZkObdWH77xu02acwDMfKe5oDXzW9role3EnvmbADqva7lUK3nuUfcpbgTnOCJyO6N7tfHZDX0io9AUlBn5bBPW7hkH0423yQsuhRoxv5hFv9llsZfnqwPDNoDzL1QYfD2QNGvJJX3Dz3Ka4bKFHwISKmqnYBeTA7LHq7wgIhH3GgygDKtu9X5Ktx7iVaIJWVOGDGYfGzD1kJfM8sSyvVeNwM89keCbnON0mvmJZ0CY",
   "district":"yqOAm4iVV341GmDD8MlVkZHR4Wj3M909HxOfU8shmhlatvrOKWwx7FMVmt6bIYvw1Nen9C2YOdsksVILkuhtJXiJWkN23JurPZSIygCMUwfpgfkVdROPEyU6kucpyuh4gOk5yB9GlFXI6EMCj0y9zDeSrB3wDYJzdkX3RU6FQXUBek4XIw7NVg9kKJWTEciRzPZoO7h7Boh66xny7Vasyzoi831Y8Ci05AgO9HPWF0UE3pMl0xI3GRlsk2huua3",
   "state":"VTiEvRU7nFyxD7dLqBRdgiv6EjrNkfQkj9JpmqiPOl7xuiOzqptGSOLp2xBop0Mslhz3El4Mvx5QXaAdCCCL8eyyu7RRzCIYNO3ddEbOQUV0jwStjxT3l1tT7zr5ID0hQoThgkrUuHmmxziWr24yDYbQXcQ28YeLqixpQsKpYXOeXyMsYd16gGYZ4pmuhDtkfCQNiBThaCBUZ8IysCbH9lgklDKj0BnCycxjBi9XozbUzkGVRRFnV6M0fbbvTVu",
   "email":"0FcWexsghBENVOGxqqVceJOaf@gmail.com",
   "ownerId":"JPSNDdTzI1PmoaI",
   "pincode":"619311",
   "mobileNumber":"6747588947"
  },
  {
   "name":"M140LoOFikbbjRGlkFUAydPBQ0xSUV0L7u409v3DzzclyvoXveYSpzvU4dnODERSMIe2hs6vE9dCBM3pjsHP25byLUOoUbeblIXyPVYUnPNUmFFzplrub57tJ7gT2cHVrPyDLIhhrk2gncP4ftaIAEq6rw6gfpFW8NG2BE22YSolt3pneDDLTLzjn995sOknNMADnTQGrfSAslacZ24nSLSboKmOpWCZqGVxdfOGCLClDV0C6QwL9eTDVJ2jnYJ",
   "address":"ZVAscZFSGU7kJdZCaB3s0qWM4Dyl2yEQ7l71rM2a1W13m59FytPh4BezGZmfOEJ9T1Q74IiukXCt38jRaM6dPmDnIPh6rJ4WQYMWMdFBDMHRqshiJ5nHOB9vmU3k6LD4vWX1pkbTPDHrHVXjkuVjKZ3JZy0Ji8Udg1r3V7vczg1IQNIvAc5cTI3gePWulZkk6TZwtQMgLl7yrV81XOA5XpMUGDuoIjQHDklaQvi0YMX6aUF05jHFjkISMknhGqX",
   "district":"eAioWms8OsWKqJyr1kzlueZd7BsIqGJNcbEcw6X8WphlJxIwCgkgTY3PdwAGG8Ye1EKMWGZ5XOJ50MJz2epvsFMQTbvb6nkIIq6uda03OK9cy7HucUGvoiZRz9bZQFUbfs4rpi31oUOuGfgOO7Zoai26Lg9xpFali9CL8ZelygC63bB44tEq4mlyaoSkWq2KN6QEjnwYFDgzYs9yjjbtCj1RY4q4mp7HM8AQMJE0Oxs17gf1m261y6Drt7cgwHi",
   "state":"iRXMXu6FRasGm7ccmxNemPttx0eNIGClvKOAviQ18r9cs21YgkG9mqGZQUD92uLG4xk4sEqFSCHgAhlENeZIEfKdqwxZHEVOYj4UjzRfRD5HvLho2d9rwXEkFmI2ySHQxdUYonPrh65sr6BN2Dzpdv94PUtdzYlEwjwZkKv1Y7bd0s3SvzSNQAGA8cD96t43pBA4519BsbETqOfYIc7rlslbSnRYxbKc6gZoHEprn0IyhFybxuJO6ZrrUkaYcCj",
   "email":"m7h3T0O2gYxp11O0FCkTbT1Vb@gmail.com",
   "ownerId":"NIxHmUXWBCGNYzm",
   "pincode":"756595",
   "mobileNumber":"9218705080"
  },
  {
   "name":"OANaxp5n8KHnuV8eOJLA8kKzHoJPdAq4vpGlHdYiiQ42vw4PEc3al53GE9rvdWshdGsL3UWY1WgCWSnO1vc2m90HhFp9k2CCYDxFnsTuI5tavWvygRxRB2wpyDt9LXNN4tbKxWyhRTnXnnaotlLdS0Gtc94Uq1BDBMhTVFhbbOnOj71L1xKZTvuoLSCH5bKZab1bp0M17VBVoNYF9uoccNNecSxdKXASDw5fDsHgWm1jWfZRXQWlDUnC2LofLDB",
   "address":"rOapu1YHCtD7OzeSbh4DJepD52CBn5Fdq470qVt0fMWxbYsbLUl7QtTa8eDKN9uOrzrMJCeNX8qXy4EeUj1yJxgR8lmMDJzaL2EGFMBSD557mOQcZwQafM7rt6lE2oETRJXygCysOM6Kokm8OMz5F0caS5zEgRXUcfSU3NAvVE95rNIM3McxlKeK7vbQTLU5435DtzVplhpgnQ4arY4R0dHy1vBHggmqkjsLgfRX8S8hN3PcRmXhjFFw09f2i2h",
   "district":"SGAibIqa8WnrH6STzTl1M1E0ucYUyxVxbxAOSxpjq1b2xzPaaKLcIVFDCZYhyKcBMBZSOn16wfmNRp0eMll9EgwOjsFqO8zvlyL4RrNrbzljhj25JS0Fmt0HrYKZW2GPDBWQGHgrsvRRPvyToU35AVmrsNSPKII6VZ35fiSdl9nFKBb5ZCSiIaxFw0rsvEl7r9Ve60yx7GnRsrUvFoCAA8QK6PHvXj7oqkubfTImA8OBcORhtKpxwLueIOPzZnV",
   "state":"arYPg83b1UKQRLsqzqfAj9Vlt0HNYTUObM9CKOTmcn8SLsThbXoXs6pE5wGJfuc2DVwCagm4Vi6aQq6VijL602UVqqdgecZLzIxu1S6j1rxf3efhbGKkzrGrvuP1XBdVsQI8q7M4SW2QMasGS9vfUQnbcyEd3cynrheR1ULt2bkl8LnfT0pnkx1Wc2G55pWvmYm9DDBxy81OQ2GRk8NKn5gvcCGEl54AV85rlMmdPpPGObW4MPxloKNgiE5dN3j",
   "email":"vGUuJNWiLzBqwTv6sarCZajGg@gmail.com",
   "ownerId":"EgaYzrnOVvFjE1G",
   "pincode":"455327",
   "mobileNumber":"3795892111"
  }
 ]
}