{
 "created_at":"Mon Jun 28 11:53:39 2021",
 "test_data":[
    {
      "bloodGroup": "hA",
      "donorId": "F9F4e4a2c90Afd3",
      "expiryDate": "2020-06-07",
      "bankId": "c575c83e-fedb-43e9-8acd-9053c50964cb",
      "status": "1B20a"
    },
    {
      "bloodGroup": "vo",
      "donorId": "E86De92ddAe823c",
      "expiryDate": "2020-06-07",
      "bankId": "cd22cf55-bf43-40bf-8afc-3f48945a9a6b",
      "status": "BdB7f"
    },
    {
      "bloodGroup": "qg",
      "donorId": "2E31dd68C3Cf07c",
      "expiryDate": "2020-06-07",
      "bankId": "819661d8-1421-45b8-8108-83baa37de316",
      "status": "eE8BC"
    },
    {
      "bloodGroup": "Wj",
      "donorId": "1dc4977fbD3cEC1",
      "expiryDate": "2020-06-07",
      "bankId": "02f32d44-439f-455b-b2cb-5ac68340a6d1",
      "status": "8F0EE"
    },
    {
      "bloodGroup": "go",
      "donorId": "Bf6dFe03dB171b9",
      "expiryDate": "2020-06-07",
      "bankId": "17aaa234-b122-4ec2-be74-689bc5b38919",
      "status": "2317a"
    },
    {
      "bloodGroup": "vw",
      "donorId": "D21A9D2a97Ec52f",
      "expiryDate": "2020-06-07",
      "bankId": "1b0073db-0b69-4cbf-844e-8921182cdb5e",
      "status": "6d33c"
    },
    {
      "bloodGroup": "Ka",
      "donorId": "ceF0FEd8712FeeC",
      "expiryDate": "2020-06-07",
      "bankId": "3fa28679-cfa4-4cdb-bd79-d80c4ea0b3e3",
      "status": "1bA64"
    },
    {
      "bloodGroup": "kt",
      "donorId": "bEe4d54A3F1Edb4",
      "expiryDate": "2020-06-07",
      "bankId": "71b97b55-acc4-4ae6-a939-59db09a739d8",
      "status": "EAF90"
    },
    {
      "bloodGroup": "St",
      "donorId": "Cf4ee24Eb18F66e",
      "expiryDate": "2020-06-07",
      "bankId": "d267b5c1-3123-4adf-8991-a48e235f6f91",
      "status": "4FfAa"
    },
    {
      "bloodGroup": "Ys",
      "donorId": "976f23aC82e20de",
      "expiryDate": "2020-06-07",
      "bankId": "ebb3817a-8f30-4a06-9705-bb59f04397be",
      "status": "5FB65"
    }
  ]  
}